The Office! – Jack Susank
…
Who has the longest ’um’s?

UmTracker <- df |>
  group_by(Character) |>
  mutate(umInstances = str_extract(Line, regex("\\bum+\\b", ignore_case = TRUE))) |>
  filter(!is.na(umInstances)) |>
  mutate(umLength = nchar(umInstances)) |>
  summarise(maxUmLength = max(umLength), maxUmLine = Line[which.max(umLength)], .groups = "drop") |>
  select(Character, maxUmLength, maxUmLine) |>
  arrange(desc(maxUmLength))

UmTracker

# A tibble: 73 × 3
   Character maxUmLength maxUmLine                                              
   <chr>           <int> <chr>                                                  
 1 Pam                 5 " Ummmm…   "                                           
 2 Darryl              4 " [freezes] Ummm… [a moment later] Alright. Obviously …
 3 David               4 "   Ummm… okay, here’s the thing though.  The plan doe…
 4 Donna               4 " Ummm, no."                                           
 5 Jim                 4 " Ummm… no idea."                                      
 6 Kelly               4 " Ummm, like a week ago, we got really wasted and it j…
 7 Michael             4 " Ummm-hmmm…"                                          
 8 Oscar               4 " Ummm… "                                              
 9 Andy                3 " Umm, on the contrary. "                              
10 Angela              3 " I have a very important announcement to make… about……
# ℹ 63 more rows
…
